{
	"name": "Sniper rifle",
	"description": [
		"Sniper rifle example weapon"
	],
	"model": {
		"type": "minecraft",
		"name": "IRON_HORSE_ARMOR"
	},
	"magazine": {
		"chamber": 1,
		"capacity": 24,
		"empty_sounds": []
	},
	"recoil": {
		"min": 0.2,
		"max": 0.35
	},
	"projectile": {
		"type": "shell",
		"speed": 1,
		"effective_distance": 256,
		"distance_penalty": 64,
		"damage": 15,
		"damage_penalty": 5,
		"sounds": []
	},
	"reload": {
		"time": 4,
		"sounds": {}
	},
	"automatic": false,
	"cadence": 0
}