{
	"name": "Frag grenade",
	"description": [
		"Grenade example weapon"
	],
	"model": {
		"type": "minecraft",
		"name": "CHEST"
	},
	"explosion": {
		"fuse": "0s",
		"effective_distance": 30,
		"distance_penalty": 5,
		"damage": 30,
		"damage_penalty": 7,
		"sounds": {
			"0%": {
				"name": "",
				"pitch": 2,
				"volume": 2
			}
		}
	},
	"visibility": 1,
	"units": 2,
	"cadence": 2
}